%YAML 1.1
%TAG !u! tag:unity3d.com,2011:
--- !u!221 &22100000
AnimatorOverrideController:
  m_ObjectHideFlags: 0
  m_PrefabParentObject: {fileID: 0}
  m_PrefabInternal: {fileID: 0}
  m_Name: Barbarian 3
  m_Controller: {fileID: 9100000, guid: d0a27df1aef83104aaad3e2df88aea32, type: 2}
  m_Clips:
  - m_OriginalClip: {fileID: 7400000, guid: a40f96a924a382448a51213ec95f7d18, type: 2}
    m_OverrideClip: {fileID: 7400000, guid: 16ad7b9d830c70541ad1606f1d2c0dc3, type: 2}
  - m_OriginalClip: {fileID: 7400000, guid: ff7906d766240d348945009d1096caf6, type: 2}
    m_OverrideClip: {fileID: 7400000, guid: 5cb7952fdd4581d419aa4749718ed857, type: 2}
  - m_OriginalClip: {fileID: 7400000, guid: b2ba498f2c9e29e438b9d099cae02ab7, type: 2}
    m_OverrideClip: {fileID: 7400000, guid: be0534294bffa25409e566506739701d, type: 2}
